v 20130925 2
C 42700 40600 1 0 0 PIC32MZ1024EFG064.sym
{
T 42700 40600 5 10 0 0 0 0 1
footprint=TQFP64_10
T 42700 40600 5 10 0 0 0 0 1
refdes=U1
T 42700 40600 5 10 0 0 0 0 1
device=microcontroller
T 42700 40600 5 10 0 0 0 0 1
numslots=1
T 42700 40600 5 10 0 0 0 0 1
model-name=PIC32MX1024EFG064
T 42700 40600 5 10 0 0 0 0 1
value=-
}
C 37900 39600 1 0 0 SainSmartTFT-1.sym
{
T 38150 48100 5 10 0 1 0 0 1
device=HEADER40
T 38500 47700 5 10 1 1 0 0 1
refdes=J1
T 38200 45850 5 10 0 0 0 0 1
device=240374PQ
T 38200 46250 5 10 0 0 0 0 1
footprint=HEADER40_2
}
C 43600 50200 1 0 0 l78l33.sym
{
T 45200 51500 5 10 0 0 0 0 1
device=L78L33
T 45000 51200 5 10 1 1 0 6 1
refdes=U2
T 43600 50200 5 10 0 0 0 0 1
model-name=STM L78L33ACUTR
T 43600 50200 5 10 0 0 0 0 1
footprint=SOT89
T 43600 50200 5 10 0 0 0 0 1
value=-
}
C 50600 39400 1 0 0 capacitor-1.sym
{
T 50800 40100 5 10 0 0 0 0 1
device=CAPACITOR
T 50800 39900 5 10 1 1 0 0 1
refdes=C6
T 50800 40300 5 10 0 0 0 0 1
symversion=0.1
T 50600 39400 5 10 0 0 0 0 1
footprint=1206
T 50600 39400 5 10 0 0 0 0 1
value=0.1
}
C 48900 39100 1 90 0 capacitor-1.sym
{
T 48200 39300 5 10 0 0 90 0 1
device=CAPACITOR
T 48700 39400 5 10 1 1 180 0 1
refdes=C4
T 48000 39300 5 10 0 0 90 0 1
symversion=0.1
T 48900 39100 5 10 0 0 0 0 1
footprint=1206
T 48900 39100 5 10 0 0 0 0 1
value=20pF
}
C 48200 39100 1 90 0 capacitor-1.sym
{
T 47500 39300 5 10 0 0 90 0 1
device=CAPACITOR
T 48000 39400 5 10 1 1 180 0 1
refdes=C3
T 47300 39300 5 10 0 0 90 0 1
symversion=0.1
T 48200 39100 5 10 0 0 0 0 1
footprint=1206
T 48200 39100 5 10 0 0 0 0 1
value=20pF
}
C 43800 49800 1 90 0 capacitor-1.sym
{
T 43100 50000 5 10 0 0 90 0 1
device=CAPACITOR
T 43900 50100 5 10 1 1 180 0 1
refdes=C1
T 42900 50000 5 10 0 0 90 0 1
symversion=0.1
T 43800 49800 5 10 0 0 0 0 1
footprint=1206
T 43800 49800 5 10 0 0 0 0 1
model-name=AVX 12065C334KAT2A
T 43800 49800 5 10 0 0 0 0 1
value=0.33u
}
C 45400 49800 1 90 0 capacitor-1.sym
{
T 44700 50000 5 10 0 0 90 0 1
device=CAPACITOR
T 45500 50100 5 10 1 1 180 0 1
refdes=C2
T 44500 50000 5 10 0 0 90 0 1
symversion=0.1
T 45400 49800 5 10 0 0 0 0 1
model-name=AVX 12065E104ZAT2A
T 45400 49800 5 10 0 0 0 0 1
footprint=1206
T 45400 49800 5 10 0 0 0 0 1
value=0.1u
}
C 38600 52100 1 90 0 connector4-2.sym
{
T 38600 52600 5 10 1 1 180 6 1
refdes=J3
T 36550 52400 5 10 0 0 90 0 1
device=CONNECTOR_4
T 36350 52400 5 10 0 0 90 0 1
footprint=JUMPER4
}
C 39600 52100 1 270 1 connector6-2.sym
{
T 42500 52500 5 10 1 1 180 8 1
refdes=J2
T 42450 52400 5 10 0 0 90 2 1
device=CONNECTOR_6
T 39600 52100 5 10 0 0 0 0 1
footprint=JUMPER6
}
C 46400 51700 1 90 0 USBgeneric.sym
{
T 44800 51700 5 10 0 1 90 0 1
device=USB
T 44600 52600 5 10 1 1 180 0 1
refdes=J4
T 46400 51700 5 10 0 0 0 0 1
footprint=10103593B-1
T 46400 51700 5 10 0 0 0 0 1
model-name=10103593B
}
N 43600 50800 43600 50700 4
N 45200 50800 45200 50700 4
N 41600 52100 41600 50800 4
N 37000 50800 43600 50800 4
N 41200 52100 41200 49800 4
N 37900 49800 48700 49800 4
N 44400 50200 44400 49800 4
N 45000 51700 45000 51600 4
N 45000 51600 41600 51600 4
N 45900 51700 45900 51500 4
N 41200 51500 46400 51500 4
N 42800 43800 42000 43800 4
N 42000 43800 42000 52100 4
N 39300 47400 41200 47400 4
N 41200 47400 41200 39400 4
N 41200 39400 47700 39400 4
N 47700 39400 47700 40700 4
N 47400 40700 47400 39300 4
N 47400 39300 41100 39300 4
N 41100 39300 41100 47000 4
N 41100 47000 39300 47000 4
N 39300 46600 41000 46600 4
N 41000 43500 41000 46600 4
N 41000 43500 42800 43500 4
N 42800 44700 40900 44700 4
N 40900 44700 40900 46200 4
N 40900 46200 39300 46200 4
N 39300 45800 40800 45800 4
N 40800 45000 40800 45800 4
N 40800 45000 42800 45000 4
N 42800 45300 40700 45300 4
N 40700 45300 40700 45400 4
N 40700 45400 39300 45400 4
N 39300 45000 40700 45000 4
N 40700 41700 40700 45000 4
N 40700 41700 42800 41700 4
N 45300 40700 45300 39200 4
N 40600 39200 45300 39200 4
N 40600 39200 40600 44600 4
N 40600 44600 39300 44600 4
N 49400 44400 50200 44400 4
N 50200 44400 50200 48100 4
N 50200 48100 37200 48100 4
N 37200 48100 37200 45000 4
N 37200 45000 37900 45000 4
N 37900 44600 37100 44600 4
N 37100 44600 37100 48200 4
N 37100 48200 50300 48200 4
N 50300 44100 50300 48200 4
N 50300 44100 49400 44100 4
N 45000 40700 45000 39100 4
N 40500 39100 45000 39100 4
N 40500 39100 40500 48300 4
N 40500 48300 37000 48300 4
N 37000 44200 37000 48300 4
N 37000 44200 37900 44200 4
N 46800 40700 46800 39000 4
N 40400 39000 46800 39000 4
N 40400 39000 40400 48400 4
N 40400 48400 36900 48400 4
N 36900 43800 36900 48400 4
N 36900 43800 37900 43800 4
N 44100 40700 44100 40200 4
N 41300 40200 44100 40200 4
N 41300 40200 41300 49400 4
N 40800 49400 41300 49400 4
N 40800 49400 40800 52100 4
N 43800 40700 43800 40300 4
N 41400 40300 43800 40300 4
N 41400 40300 41400 49500 4
N 40400 49500 41400 49500 4
N 40400 49500 40400 52100 4
N 41200 51500 38200 51500 4
N 38200 51500 38200 52100 4
N 37000 52100 37000 50800 4
N 45900 40700 45900 39500 4
N 45900 39500 40300 39500 4
N 40300 39500 40300 48500 4
N 40300 48500 36800 48500 4
N 36800 43400 36800 48500 4
N 36800 43400 37900 43400 4
N 45600 40700 45600 39600 4
N 45600 39600 40200 39600 4
N 40200 39600 40200 48600 4
N 40200 48600 36700 48600 4
N 36700 43000 36700 48600 4
N 36700 43000 37900 43000 4
N 49400 45300 50400 45300 4
N 50400 45300 50400 48700 4
N 50400 48700 36600 48700 4
N 36600 48700 36600 42600 4
N 36600 42600 37900 42600 4
N 37900 42200 36500 42200 4
N 36500 42200 36500 48800 4
N 36500 48800 50500 48800 4
N 50500 44700 50500 48800 4
N 50500 44700 49400 44700 4
N 45900 47300 45900 48900 4
N 37800 48900 45900 48900 4
N 37800 48900 37800 52100 4
N 37400 52100 37400 49000 4
N 37400 49000 50600 49000 4
N 50600 49000 50600 45900 4
N 50600 45900 49400 45900 4
N 39300 44200 40100 44200 4
N 40100 38600 40100 44200 4
N 39300 41400 40100 41400 4
N 49400 45000 50600 45000 4
N 50600 45000 50600 38600 4
N 50600 38600 40100 38600 4
C 48000 39900 1 0 0 crystal-1.sym
{
T 48200 40400 5 10 0 0 0 0 1
device=CRYSTAL
T 48200 39700 5 10 1 1 0 0 1
refdes=X1
T 48200 40600 5 10 0 0 0 0 1
symversion=0.1
T 48200 40800 5 10 0 0 0 0 1
numslots=1
T 48000 39900 5 10 0 0 0 0 1
footprint=Crystal3_1
T 48000 39900 5 10 0 0 0 0 1
value=20MHz
}
C 50800 47900 1 0 0 led-1.sym
{
T 51600 48500 5 10 0 0 0 0 1
device=LED
T 51600 48300 5 10 1 1 0 0 1
refdes=LED2
T 51600 48700 5 10 0 0 0 0 1
symversion=0.1
T 50800 47900 5 10 0 0 0 0 1
footprint=1210
}
C 46900 51800 1 0 0 led-1.sym
{
T 47700 52400 5 10 0 0 0 0 1
device=LED
T 47700 52200 5 10 1 1 0 0 1
refdes=LED1
T 47700 52600 5 10 0 0 0 0 1
symversion=0.1
T 46900 51800 5 10 0 0 0 0 1
footprint=1206
}
C 50600 49900 1 90 0 resistor-1.sym
{
T 50200 50200 5 10 0 0 90 0 1
device=RESISTOR
T 50300 50300 5 10 1 1 180 0 1
refdes=R1
T 50600 49900 5 10 0 0 0 0 1
footprint=1206
T 50600 49900 5 10 0 0 0 0 1
value=47K
}
C 47800 51900 1 0 0 resistor-1.sym
{
T 48100 52300 5 10 0 0 0 0 1
device=RESISTOR
T 48300 52200 5 10 1 1 0 0 1
refdes=R3
T 47800 51900 5 10 0 0 0 0 1
footprint=1206
T 47800 51900 5 10 0 0 0 0 1
value=1K
}
C 51700 48000 1 0 0 resistor-1.sym
{
T 52000 48400 5 10 0 0 0 0 1
device=RESISTOR
T 52200 48300 5 10 1 1 0 0 1
refdes=R4
T 51700 48000 5 10 0 0 0 0 1
footprint=1206
T 51700 48000 5 10 0 0 0 0 1
value=220
}
C 51600 48700 1 90 0 resistor-1.sym
{
T 51200 49000 5 10 0 0 90 0 1
device=RESISTOR
T 51300 49100 5 10 1 1 180 0 1
refdes=R2
T 51600 48700 5 10 0 0 0 0 1
footprint=1206
T 51600 48700 5 10 0 0 0 0 1
value=220
}
C 50500 49600 1 0 0 switch-pushbutton-no-dpst-1.sym
{
T 50900 50300 5 10 1 1 0 0 1
refdes=S1
T 50900 50200 5 10 0 0 0 0 1
device=SWITCH_PUSHBUTTON_NO
T 50500 49600 5 10 0 0 0 0 1
footprint=tact-switch2
}
N 48000 40700 48000 40000 4
N 48700 40000 48700 40700 4
N 48700 40700 48300 40700 4
N 46200 39100 51500 39100 4
N 46200 40700 46200 39100 4
N 45200 50800 46900 50800 4
N 46900 49100 46900 52000 4
N 45000 47300 45000 49100 4
N 45000 49100 46900 49100 4
N 45300 47300 45300 49800 4
N 48700 49800 48700 52000 4
N 46900 50800 50500 50800 4
N 50500 49600 50500 49900 4
N 51500 48700 52600 48700 4
N 52000 48700 52000 52000 4
N 48700 52000 52000 52000 4
N 51500 49900 51500 49600 4
N 50500 49600 42000 49600 4
N 49400 42300 50200 42300 4
N 50200 39100 50200 43800 4
N 49400 43800 50200 43800 4
N 46500 47300 46500 49800 4
N 46800 47300 46800 49100 4
N 46200 47300 46200 47900 4
N 40000 47900 46200 47900 4
N 40000 41800 40000 47900 4
N 40000 41800 39300 41800 4
N 39300 42600 40000 42600 4
N 47700 47300 47700 48000 4
N 39900 48000 47700 48000 4
N 39900 41000 39900 48000 4
N 39900 41000 39300 41000 4
N 39300 43400 39900 43400 4
N 46200 39700 41500 39700 4
N 41500 39700 41500 49800 4
N 41500 44400 42800 44400 4
N 42800 44100 42100 44100 4
N 42100 39800 42100 49100 4
N 45900 50800 45900 49100 4
N 37300 49100 45900 49100 4
N 42100 39800 46500 39800 4
N 46500 39800 46500 40700 4
N 37900 49800 37900 47400 4
N 37300 40200 37300 49100 4
N 37300 47000 37900 47000 4
N 37300 40200 37900 40200 4
N 39300 43800 40900 43800 4
N 40900 43800 40900 43200 4
N 42800 43200 40900 43200 4
N 39300 43000 41000 43000 4
N 41000 42900 42800 42900 4
N 41000 42900 41000 43000 4
N 42800 42600 41000 42600 4
N 41000 42200 41000 42600 4
N 39300 42200 41000 42200 4
N 42800 42300 40900 42300 4
N 40900 40600 40900 42300 4
N 40900 40600 39300 40600 4
N 42800 42000 41000 42000 4
N 41000 40200 41000 42000 4
N 41000 40200 39300 40200 4
N 47100 40700 47100 39900 4
N 47100 39900 41000 39900 4
N 41000 39900 41000 39800 4
N 41000 39800 39300 39800 4
N 42800 46200 42800 49700 4
N 42800 49700 37500 49700 4
N 37500 45400 37500 49700 4
N 37500 45400 37900 45400 4
N 42800 45900 42600 45900 4
N 42600 45900 42600 49300 4
N 42600 49300 37600 49300 4
N 37600 49300 37600 45800 4
N 37600 45800 37900 45800 4
N 42800 45600 42300 45600 4
N 42300 45600 42300 49200 4
N 37900 46200 37700 46200 4
N 37700 46200 37700 49200 4
N 37700 49200 42300 49200 4
N 43800 47300 41900 47300 4
N 41900 47300 41900 38700 4
N 41900 38700 37000 38700 4
N 37000 38700 37000 41800 4
N 37000 41800 37900 41800 4
N 44100 47300 44100 47400 4
N 37900 41400 37100 41400 4
N 37100 41400 37100 38800 4
N 37100 38800 41800 38800 4
N 41800 38800 41800 47400 4
N 41800 47400 44100 47400 4
N 44400 47300 44400 47600 4
N 37900 41000 37200 41000 4
N 37200 38900 37200 41000 4
N 37200 38900 41700 38900 4
N 41700 38900 41700 47600 4
N 41700 47600 44400 47600 4
N 49400 43500 49600 43500 4
N 49600 43500 49600 50800 4
N 45600 47300 45600 48600 4
N 45600 48600 50800 48600 4
N 50800 48600 50800 48100 4
N 49400 45600 50700 45600 4
N 50700 45600 50700 46800 4
N 50700 46800 51900 46800 4
N 48300 47300 50800 47300 4
N 50800 46400 50800 47300 4
N 50800 46400 51900 46400 4
N 48000 47300 48000 47400 4
N 48000 47400 50900 47400 4
N 50900 47400 50900 46000 4
N 50900 46000 51900 46000 4
N 47400 47300 47400 47500 4
N 47400 47500 51000 47500 4
N 51000 47500 51000 45600 4
N 51000 45600 51900 45600 4
N 47100 47300 47100 47600 4
N 47100 47600 51100 47600 4
N 51100 45200 51100 47600 4
N 51100 45200 51900 45200 4
N 51900 44800 51200 44800 4
N 51200 44800 51200 46200 4
N 51200 46200 49400 46200 4
N 49400 43200 51600 43200 4
N 51500 39100 51500 39600 4
N 52600 48100 52600 48700 4
N 49700 42900 49700 50900 4
N 49400 42900 49700 42900 4
N 45300 51700 45300 50900 4
N 45300 50900 49700 50900 4
N 49800 42600 49800 51100 4
N 49400 42600 49800 42600 4
N 45600 51700 45600 51100 4
N 45600 51100 49800 51100 4
N 46400 52600 46400 51500 4
C 49800 40200 1 90 0 capacitor-1.sym
{
T 49100 40400 5 10 0 0 90 0 1
device=CAPACITOR
T 49900 40500 5 10 1 1 180 0 1
refdes=C5
T 48900 40400 5 10 0 0 90 0 1
symversion=0.1
T 49800 40200 5 10 0 0 0 0 1
footprint=1206
T 49800 40200 5 10 0 0 0 0 1
value=0.1
}
C 50900 40300 1 90 0 inductor-1.sym
{
T 50400 40500 5 10 0 0 90 0 1
device=INDUCTOR
T 51100 40800 5 10 1 1 180 0 1
refdes=L1
T 50200 40500 5 10 0 0 90 0 1
symversion=0.1
T 50900 40300 5 10 0 0 0 0 1
model-name=TDK NLV32T-R10J-PF
T 50900 40300 5 10 0 0 0 0 1
footprint=1210
T 50900 40300 5 10 0 0 0 0 1
value=100nH
}
N 44400 40200 50800 40200 4
N 44700 40300 50200 40300 4
N 44400 40200 44400 40700 4
N 44700 40300 44700 40700 4
N 49600 41100 50200 41100 4
N 50800 41200 50600 41200 4
T 37000 52200 6 10 1 0 270 0 1
Vcc
T 37400 52200 6 10 1 0 270 0 1
TX
T 37800 52200 6 10 1 0 270 0 1
RX
T 38200 52200 6 10 1 0 270 0 1
Vss
T 42000 52200 6 10 1 0 270 0 1
MCLR
T 41600 52200 6 10 1 0 270 0 1
Vdd
T 41200 52200 6 10 1 0 270 0 1
Vss
T 40800 52200 6 10 1 0 270 0 1
PGD
T 40400 52200 6 10 1 0 270 0 1
PGC
T 51700 46800 6 10 1 0 0 0 1
RD0
T 51700 45600 6 10 1 0 0 0 1
RD4
T 51700 45200 6 10 1 0 0 0 1
RD5
T 51700 46400 6 10 1 0 0 0 1
RD1
T 51700 46000 6 10 1 0 0 0 1
RD2
T 51600 44800 6 10 1 0 0 0 1
RC14
T 51400 47800 6 10 1 0 0 0 1
Buf
T 50700 49400 6 10 1 0 0 0 1
Reset
T 47500 51700 6 10 1 0 0 0 1
Pwr
N 44700 47700 51400 47700 4
N 44700 47700 44700 47300 4
N 51400 43300 51700 43300 4
N 51400 43300 51400 47700 4
N 49400 42000 50600 42000 4
N 49400 41700 50600 41700 4
N 50800 40200 50800 40300 4
T 39900 51900 5 10 1 0 0 0 1
n/c
C 52800 42200 1 90 0 jumper-1.sym
{
T 52300 42500 5 8 0 0 90 0 1
device=JUMPER
T 52200 42600 5 10 1 1 180 0 1
refdes=JP2
T 52800 42200 5 10 0 0 0 0 1
footprint=JUMPER2
}
C 52800 42700 1 90 0 jumper-1.sym
{
T 52300 43000 5 8 0 0 90 0 1
device=JUMPER
T 52200 43100 5 10 1 1 180 0 1
refdes=JP1
T 52800 42700 5 10 0 0 0 0 1
footprint=JUMPER2
}
C 50600 42700 1 0 0 resistor-1.sym
{
T 50900 43100 5 10 0 0 0 0 1
device=RESISTOR
T 50800 43000 5 10 1 1 0 0 1
refdes=R5
T 50600 42700 5 10 0 0 0 0 1
footprint=1206
T 50600 42700 5 10 0 0 0 0 1
value=47K
}
C 52800 42700 1 0 0 resistor-1.sym
{
T 53100 43100 5 10 0 0 0 0 1
device=RESISTOR
T 53000 42900 5 10 1 1 0 0 1
refdes=R6
T 52800 42700 5 10 0 0 0 0 1
footprint=1206
T 52800 42700 5 10 0 0 0 0 1
value=220
}
C 51900 44400 1 0 0 connector6-2.sym
{
T 52600 47300 5 10 1 1 0 6 1
refdes=J5
T 52200 47250 5 10 0 0 0 0 1
device=CONNECTOR_6
T 51900 44400 5 10 0 0 0 0 1
footprint=JUMPER6
}
C 50600 42200 1 0 0 resistor-1.sym
{
T 50900 42600 5 10 0 0 0 0 1
device=RESISTOR
T 50800 42500 5 10 1 1 0 0 1
refdes=R7
T 50600 42200 5 10 0 0 0 0 1
footprint=1206
T 50600 42200 5 10 0 0 0 0 1
value=47K
}
C 52800 42200 1 0 0 resistor-1.sym
{
T 53100 42600 5 10 0 0 0 0 1
device=RESISTOR
T 53000 42400 5 10 1 1 0 0 1
refdes=R8
T 52800 42200 5 10 0 0 0 0 1
footprint=1206
T 52800 42200 5 10 0 0 0 0 1
value=220
}
N 51700 42800 51700 43300 4
N 51500 42300 51800 42300 4
N 51600 42300 51600 43200 4
N 51500 42800 51800 42800 4
N 53700 42800 53700 41900 4
N 53700 41900 50200 41900 4
T 51400 41400 5 10 1 0 0 0 1
JP1
T 52200 41400 5 10 1 0 0 0 1
JP2
T 51400 41100 14 10 1 0 0 0 1
open
T 51400 40800 14 10 1 0 0 0 1
open
T 52200 41100 14 10 1 0 0 0 1
open
T 52200 40500 14 10 1 0 0 0 1
open
T 52200 40800 14 10 1 0 0 0 1
closed
T 51400 40500 14 10 1 0 0 0 1
closed
T 51400 40200 14 10 1 0 0 0 1
closed
T 52200 40200 14 10 1 0 0 0 1
closed
T 53000 41100 14 10 1 0 0 0 1
38K4
T 53000 40800 14 10 1 0 0 0 1
115K2
T 53000 40500 14 10 1 0 0 0 1
9K6
T 53000 40200 14 10 1 0 0 0 1
9K6 inv
B 51200 40000 2500 1700 3 0 0 0 -1 -1 0 -1 -1 -1 -1 -1
