v 20130925 2
C 50100 41800 1 0 0 SainSmartTFT-1.sym
{
T 50350 50300 5 10 0 1 0 0 1
device=HEADER40
T 50600 49900 5 10 1 1 0 0 1
refdes=TFT1
T 50400 48050 5 10 0 0 0 0 1
device=240374PQ
T 50400 48450 5 10 0 0 0 0 1
footprint=DIL40
}
C 46600 42300 1 0 1 connector8-2.sym
{
T 45900 46000 5 10 1 1 0 0 1
refdes=J7
T 46300 45950 5 10 0 0 0 6 1
device=CONNECTOR_8
T 46300 46150 5 10 0 0 0 6 1
footprint=SIP8N
}
C 46600 46400 1 0 1 connector6-2.sym
{
T 45900 49300 5 10 1 1 0 0 1
refdes=J10
T 46300 49250 5 10 0 0 0 6 1
device=CONNECTOR_6
T 46300 49450 5 10 0 0 0 6 1
footprint=SIP6N
}
N 46600 48400 48300 48400 4
N 48300 42400 48300 49200 4
N 48300 49200 50100 49200 4
N 46600 47600 48100 47600 4
N 48100 47600 48100 49600 4
N 48100 49600 50100 49600 4
N 48300 42400 50100 42400 4
N 46600 45500 46700 45500 4
N 46700 45500 46700 47200 4
N 46700 47200 50100 47200 4
N 46600 45100 46900 45100 4
N 46900 45100 46900 46800 4
N 46900 46800 50100 46800 4
N 46600 44700 47100 44700 4
N 47100 44700 47100 46400 4
N 47100 46400 50100 46400 4
N 46600 44300 47300 44300 4
N 47300 44300 47300 46000 4
N 47300 46000 50100 46000 4
N 46600 43900 47500 43900 4
N 47500 43900 47500 45600 4
N 47500 45600 50100 45600 4
N 46600 43500 47700 43500 4
N 47700 43500 47700 45200 4
N 47700 45200 50100 45200 4
N 46600 43100 47900 43100 4
N 47900 43100 47900 44800 4
N 47900 44800 50100 44800 4
N 50100 44400 48100 44400 4
N 48100 42700 48100 44400 4
N 48100 42700 46600 42700 4
N 54800 39300 54800 38000 4
N 54800 38000 58600 38000 4
N 58600 38000 58600 49600 4
N 58600 49600 51500 49600 4
N 55200 39300 55200 38300 4
N 55200 38300 58400 38300 4
N 58400 38300 58400 48800 4
N 58400 48800 51500 48800 4
N 55600 39300 55600 38600 4
N 55600 38600 58200 38600 4
N 58200 38600 58200 48000 4
N 58200 48000 51500 48000 4
N 56000 39300 56000 38900 4
N 56000 38900 58000 38900 4
N 58000 38900 58000 47200 4
N 58000 47200 51500 47200 4
N 54800 40700 54800 49200 4
N 54800 49200 51500 49200 4
N 55200 40700 55200 48400 4
N 55200 48400 51500 48400 4
N 55600 40700 55600 47600 4
N 55600 47600 51500 47600 4
N 56000 40700 56000 46800 4
N 56000 46800 51500 46800 4
N 53600 39300 53600 38500 4
N 53600 38500 49400 38500 4
N 49400 38500 49400 43200 4
N 49400 43200 50100 43200 4
N 53200 39300 53200 38900 4
N 53200 38900 49200 38900 4
N 49200 38900 49200 44000 4
N 49200 44000 50100 44000 4
N 52800 39300 52800 39200 4
N 52800 39200 48900 39200 4
N 48900 39200 48900 47600 4
N 48900 47600 50100 47600 4
N 53200 40700 53200 41100 4
N 53200 41100 48700 41100 4
N 48700 41100 48700 48000 4
N 48700 48000 50100 48000 4
N 52800 40700 52800 40900 4
N 52800 40900 48500 40900 4
N 48500 40900 48500 48400 4
N 48500 48400 50100 48400 4
C 50300 39300 1 0 0 ArduinoRearConnector.sym
{
T 50600 39295 5 10 0 1 0 0 1
device=CHIPKITJ15
T 50600 39295 5 10 0 1 0 0 1
footprint=HEADER36-2
T 50200 40195 5 10 1 1 0 0 1
refdes=J15
}
